<svg xmlns="http://www.w3.org/2000/svg" width="17" height="17" viewBox="0 0 17 17">
    <path fill="#0E8B47" fill-rule="nonzero" d="M9.35 4.25h-1.7v3.4h-3.4v1.7h3.4v3.4h1.7v-3.4h3.4v-1.7h-3.4v-3.4zM8.5 0A8.503 8.503 0 0 0 0 8.5C0 13.192 3.808 17 8.5 17S17 13.192 17 8.5 13.192 0 8.5 0zm0 15.3a6.809 6.809 0 0 1-6.8-6.8c0-3.748 3.051-6.8 6.8-6.8 3.748 0 6.8 3.051 6.8 6.8 0 3.748-3.052 6.8-6.8 6.8z"/>
</svg>
