<?xml version="1.0" encoding="UTF-8" standalone="no"?>
<svg width="116px" height="94px" viewBox="0 0 116 94" version="1.1" xmlns="http://www.w3.org/2000/svg" xmlns:xlink="http://www.w3.org/1999/xlink">
    <!-- Generator: Sketch 49 (51002) - http://www.bohemiancoding.com/sketch -->
    <title>missing</title>
    <desc>Created with Sketch.</desc>
    <defs>
        <circle id="path-1" cx="85" cy="25" r="25"></circle>
        <filter x="-17.0%" y="-13.0%" width="134.0%" height="134.0%" filterUnits="objectBoundingBox" id="filter-2">
            <feMorphology radius="1.5" operator="dilate" in="SourceAlpha" result="shadowSpreadOuter1"></feMorphology>
            <feOffset dx="0" dy="2" in="shadowSpreadOuter1" result="shadowOffsetOuter1"></feOffset>
            <feGaussianBlur stdDeviation="2" in="shadowOffsetOuter1" result="shadowBlurOuter1"></feGaussianBlur>
            <feComposite in="shadowBlurOuter1" in2="SourceAlpha" operator="out" result="shadowBlurOuter1"></feComposite>
            <feColorMatrix values="0 0 0 0 0   0 0 0 0 0   0 0 0 0 0  0 0 0 0.116225091 0" type="matrix" in="shadowBlurOuter1"></feColorMatrix>
        </filter>
    </defs>
    <g id="Page-1" stroke="none" stroke-width="1" fill="none" fill-rule="evenodd">
        <g id="contact" transform="translate(-558.000000, -414.000000)">
            <g id="missing" transform="translate(558.000000, 418.000000)">
                <g id="box-copy" transform="translate(0.000000, 6.000000)" fill-rule="nonzero">
                    <polygon id="Shape" fill="#EFC75E" points="0 20.6372965 42.5 0 85 20.6371317 85 23.3628683 42.5 44 0 23.4279551"></polygon>
                    <polygon id="Shape" fill="#E7BF55" points="0 22 42.5 42.6450177 85 22 85 63.3549823 42.3671359 84 0 63.3551471"></polygon>
                    <polygon id="Shape" fill="#DBB551" points="42 83.9352472 42 42.5585251 0.262435433 22 0 22 0 63.3116389 41.868699 84"></polygon>
                    <polygon id="Shape" fill="#F7E3AF" points="18 12.1883242 60.3784223 33 69 28.8115096 26.4888862 8"></polygon>
                    <path d="M60,33.2845032 L68,29 L68,42.3891149 L65.8460937,41.9874534 L63.5692187,45 L60,44.7322823 C60,44.7321123 60,33.2845032 60,33.2845032 Z" id="Shape" fill="#F1D999"></path>
                    <path d="M34.4137166,59.076562 L19.5172917,52.1376687 C18.6897417,51.7521836 18,52.2019433 18,53.1657374 L18,62.4819786 C18,63.4457727 18.6895666,64.537953 19.5172917,64.923438 L34.4827083,71.8623313 C35.3102583,72.2478164 36,71.7980567 36,70.8342626 L36,61.4537467 C35.9308332,60.4899526 35.2412666,59.4622101 34.4137166,59.076562 Z M31.0343499,66.7223137 L21.517175,62.2891545 C21.1034,62.0963305 20.7586167,61.5181845 20.7586167,61.0041501 C20.7586167,60.4901157 21.1034,60.2331801 21.517175,60.4258411 L31.0343499,64.8590002 C31.4481249,65.0518243 31.7929082,65.6299702 31.7929082,66.1440046 C31.7929082,66.658039 31.4481249,66.9149747 31.0343499,66.7223137 Z M32.4136583,63.5097211 L21.517175,58.3697035 C21.1034,58.1768794 20.7586167,57.5987335 20.7586167,57.0846991 C20.7586167,56.5706647 21.1034,56.3137291 21.517175,56.50639 L32.4136583,61.6464076 C32.8274332,61.8392317 33.1722165,62.4173777 33.1722165,62.931412 C33.1723917,63.5097211 32.8274332,63.7023821 32.4136583,63.5097211 Z" id="Shape" fill="#F2F2F2"></path>
                </g>
                <g id="Oval-5-Copy">
                    <use fill="black" fill-opacity="1" filter="url(#filter-2)" xlink:href="#path-1"></use>
                    <use stroke="#FFFFFF" stroke-width="3" fill="#D0021B" fill-rule="evenodd" xlink:href="#path-1"></use>
                </g>
                <polygon id="x" fill="#FFFFFF" points="93.15 16.38 87.75 24.51 93.12 33 88.38 33 85.2 27.99 82.14 33 77.88 33 83.25 24.9 77.88 16.38 82.62 16.38 85.8 21.42 88.86 16.38"></polygon>
            </g>
        </g>
    </g>
</svg>