<?xml version="1.0" encoding="UTF-8" standalone="no"?>
<svg width="78px" height="78px" viewBox="0 0 78 78" version="1.1" xmlns="http://www.w3.org/2000/svg" xmlns:xlink="http://www.w3.org/1999/xlink">
    <!-- Generator: Sketch 49 (51002) - http://www.bohemiancoding.com/sketch -->
    <title>store</title>
    <desc>Created with Sketch.</desc>
    <defs></defs>
    <g id="Page-1" stroke="none" stroke-width="1" fill="none" fill-rule="evenodd">
        <g id="contact" transform="translate(-806.000000, -426.000000)" fill-rule="nonzero">
            <g id="store" transform="translate(806.000000, 426.000000)">
                <polygon id="Shape" fill="#F0785A" points="3.36206897 14.7931034 3.36206897 29.0375172 3.36206897 39.8324483 3.36206897 78 10.0862069 78 75.9827586 78 75.9827586 29.0375172 75.9827586 14.7931034"></polygon>
                <rect id="Rectangle-path" fill="#B35A5B" x="6.05172414" y="39" width="37.6551724" height="30.9310345"></rect>
                <rect id="Rectangle-path" fill="#B0D3F0" x="8.74137931" y="41.6896552" width="32.2758621" height="25.5517241"></rect>
                <path d="M20.8448276,14.7931034 L2.52558621,14.7931034 C2.27141379,14.7931034 2.08717241,14.5496897 2.15710345,14.304931 L7.6197931,2.43817241 C8.30296552,0.952137931 9.789,0 11.4256552,0 L23.5344828,0 L20.8448276,14.7931034 Z" id="Shape" fill="#ED7161"></path>
                <polygon id="Shape" fill="#ED7161" points="58.5 14.7931034 39.6724138 14.7931034 39.6724138 0 55.8103448 0"></polygon>
                <path d="M30.2586207,33.6206897 C25.0595172,33.6206897 20.8448276,29.406 20.8448276,24.2068966 L20.8448276,14.7931034 L39.6724138,14.7931034 L39.6724138,24.2068966 C39.6724138,29.406 35.4577241,33.6206897 30.2586207,33.6206897 Z" id="Shape" fill="#F0C419"></path>
                <path d="M67.9137931,33.6206897 C62.7146897,33.6206897 58.5,29.406 58.5,24.2068966 L58.5,14.7931034 L77.1836897,14.7931034 C77.2630345,14.7931034 77.3275862,14.8576552 77.3275862,14.937 L77.3275862,24.2068966 C77.3275862,29.406 73.1128966,33.6206897 67.9137931,33.6206897 Z" id="Shape" fill="#F0C419"></path>
                <polygon id="Shape" fill="#F3D55B" points="39.6724138 14.7931034 20.8448276 14.7931034 23.5344828 0 39.6724138 0"></polygon>
                <path d="M76.8501724,14.7931034 L58.5,14.7931034 L55.8103448,0 L67.9191724,0 C69.5558276,0 71.0418621,0.952137931 71.7263793,2.43951724 L77.1971379,14.3345172 C77.2616897,14.5644828 77.0895517,14.7931034 76.8501724,14.7931034 Z" id="Shape" fill="#F3D55B"></path>
                <path d="M11.4310345,33.6206897 C6.23193103,33.6206897 2.01724138,29.406 2.01724138,24.2068966 L2.01724138,15.1723448 C2.01724138,14.9625517 2.18668966,14.7931034 2.39648276,14.7931034 L20.8448276,14.7931034 L20.8448276,24.2068966 C20.8448276,29.406 16.6301379,33.6206897 11.4310345,33.6206897 Z" id="Shape" fill="#D36259"></path>
                <path d="M49.0862069,33.6206897 C43.8871034,33.6206897 39.6724138,29.406 39.6724138,24.2068966 L39.6724138,14.7931034 L58.5,14.7931034 L58.5,24.2068966 C58.5,29.406 54.2853103,33.6206897 49.0862069,33.6206897 Z" id="Shape" fill="#D36259"></path>
                <rect id="Rectangle-path" fill="#B35A5B" x="49.0862069" y="39" width="21.5172414" height="39"></rect>
                <rect id="Rectangle-path" fill="#B0D3F0" x="51.7758621" y="41.6896552" width="16.137931" height="33.6206897"></rect>
                <path d="M65.2241379,63.2068966 C64.4804483,63.2068966 63.8793103,62.6057586 63.8793103,61.862069 L63.8793103,57.8275862 C63.8793103,57.0838966 64.4804483,56.4827586 65.2241379,56.4827586 C65.9678276,56.4827586 66.5689655,57.0838966 66.5689655,57.8275862 L66.5689655,61.862069 C66.5689655,62.6057586 65.9678276,63.2068966 65.2241379,63.2068966 Z" id="Shape" fill="#FFFFFF"></path>
                <g id="Group" transform="translate(21.517241, 43.034483)" fill="#FFFFFF">
                    <path d="M2.01724138,8.06896552 C2.36151724,8.06896552 2.7057931,7.93717241 2.96803448,7.67493103 L8.34734483,2.29562069 C8.87317241,1.7697931 8.87317241,0.919862069 8.34734483,0.394034483 C7.82151724,-0.131793103 6.97158621,-0.131793103 6.44575862,0.394034483 L1.06644828,5.77334483 C0.54062069,6.29917241 0.54062069,7.14910345 1.06644828,7.67493103 C1.32868966,7.93717241 1.67296552,8.06896552 2.01724138,8.06896552 Z" id="Shape"></path>
                    <path d="M2.01724138,14.7931034 C2.36151724,14.7931034 2.7057931,14.6613103 2.96803448,14.399069 L5.65768966,11.7094138 C6.18351724,11.1835862 6.18351724,10.3336552 5.65768966,9.80782759 C5.13186207,9.282 4.28193103,9.282 3.75610345,9.80782759 L1.06644828,12.4974828 C0.54062069,13.0233103 0.54062069,13.8732414 1.06644828,14.399069 C1.32868966,14.6613103 1.67296552,14.7931034 2.01724138,14.7931034 Z" id="Shape"></path>
                    <path d="M6.44172414,7.11413793 C6.19831034,7.36831034 6.05172414,7.71931034 6.05172414,8.06896552 C6.05172414,8.41862069 6.19831034,8.76827586 6.44172414,9.01034483 C6.69589655,9.26451724 7.03210345,9.4137931 7.39655172,9.4137931 C7.7462069,9.4137931 8.09586207,9.26586207 8.35137931,9.0237931 C8.59344828,8.76827586 8.74137931,8.41862069 8.74137931,8.06896552 C8.74137931,7.71931034 8.59344828,7.36831034 8.35137931,7.11413793 C7.8537931,6.61655172 6.93931034,6.61655172 6.44172414,7.11413793 Z" id="Shape"></path>
                    <path d="M9.13541379,6.33010345 C9.39765517,6.59234483 9.74193103,6.72413793 10.0862069,6.72413793 C10.4304828,6.72413793 10.7747586,6.59234483 11.037,6.33010345 L15.0714828,2.29562069 C15.5973103,1.7697931 15.5973103,0.919862069 15.0714828,0.394034483 C14.5456552,-0.131793103 13.6957241,-0.131793103 13.1698966,0.394034483 L9.13541379,4.42851724 C8.60958621,4.95434483 8.60958621,5.80427586 9.13541379,6.33010345 Z" id="Shape"></path>
                    <path d="M13.1698966,7.11817241 L1.06644828,19.2216207 C0.54062069,19.7474483 0.54062069,20.5973793 1.06644828,21.1232069 C1.32868966,21.3854483 1.67296552,21.5172414 2.01724138,21.5172414 C2.36151724,21.5172414 2.7057931,21.3854483 2.96803448,21.1232069 L15.0714828,9.01975862 C15.5973103,8.49393103 15.5973103,7.644 15.0714828,7.11817241 C14.5456552,6.59234483 13.6957241,6.59234483 13.1698966,7.11817241 Z" id="Shape"></path>
                    <path d="M17.7651724,4.42448276 C17.2675862,3.92689655 16.3531034,3.92689655 15.8555172,4.42448276 C15.6121034,4.67865517 15.4655172,5.02965517 15.4655172,5.37931034 C15.4655172,5.72896552 15.6121034,6.07862069 15.8555172,6.33413793 C16.1096897,6.5762069 16.4606897,6.72413793 16.8103448,6.72413793 C17.16,6.72413793 17.5096552,6.5762069 17.7651724,6.33413793 C18.0072414,6.07862069 18.1551724,5.72896552 18.1551724,5.37931034 C18.1551724,5.02965517 18.0072414,4.67865517 17.7651724,4.42448276 Z" id="Shape"></path>
                </g>
                <path d="M10.0862069,78 L2.01724138,78 L0.78537931,70.6101724 C0.726206897,70.2551379 1.00055172,69.9310345 1.36096552,69.9310345 L11.4310345,69.9310345 L10.0862069,78 Z" id="Shape" fill="#CB8252"></path>
                <rect id="Rectangle-path" fill="#7F6E5D" x="4.70689655" y="55.137931" width="2.68965517" height="14.7931034"></rect>
                <path d="M11.6838621,49.3282759 C12.0926897,48.2954483 12.3845172,47.142931 12.1639655,46.0415172 C12.0684828,45.5641034 11.8506207,45.1055172 11.5507241,44.7437586 C11.045069,44.1318621 10.8245172,43.2523448 10.998,42.4427586 C11.162069,41.6762069 11.0638966,40.8155172 10.7075172,40.1283103 C10.0579655,38.8762759 8.76558621,38.1756207 7.48127586,37.9927241 C6.5372069,37.8582414 5.49496552,38.0021379 4.79565517,38.7229655 L3.96455172,39.4411034 C3.02048276,39.8862414 2.29696552,40.872 2.08986207,41.9922414 C1.97824138,42.6001034 2.01858621,43.2375517 2.19341379,43.8265862 C2.45431034,44.7047586 2.2377931,45.6542069 1.73886207,46.3925172 C0.614586207,48.0547241 0.31737931,50.4364138 1.1457931,52.3218621 C1.25068966,52.5612414 1.38651724,52.797931 1.5452069,53.0117586 C2.08851724,53.742 2.29293103,54.7102759 2.06565517,55.6261034 C2.0132069,55.8358966 1.97824138,56.051069 1.95806897,56.2648966 C1.86931034,57.2425862 2.06834483,58.2216207 2.27006897,59.1791379 C2.47986207,60.1743103 2.73806897,61.2488276 3.46427586,61.8728276 C4.44868966,62.7187241 5.8742069,62.3905862 7.00117241,61.8096207 C8.59344828,60.987931 10.0673793,59.6350345 10.6295172,57.7791724 C10.9576552,56.6965862 10.8796552,55.4405172 10.4398966,54.4238276 C9.99610345,53.3963793 9.99610345,52.1766207 10.638931,51.2903793 C11.067931,50.7 11.4108621,50.0195172 11.6838621,49.3282759 Z" id="Shape" fill="#24AE5F"></path>
            </g>
        </g>
    </g>
</svg>