<?xml version="1.0" encoding="UTF-8"?>
<svg width="19px" height="16px" viewBox="0 0 19 16" version="1.1" xmlns="http://www.w3.org/2000/svg" xmlns:xlink="http://www.w3.org/1999/xlink">
    <!-- Generator: Sketch 48.2 (47327) - http://www.bohemiancoding.com/sketch -->
    <title>twitter-logo-silhouette</title>
    <desc>Created with Sketch.</desc>
    <defs></defs>
    <g id="footer" stroke="none" stroke-width="1" fill="none" fill-rule="evenodd" transform="translate(-1140.000000, -119.000000)" opacity="0.380888526">
        <g id="Group-3" transform="translate(0.000000, 3.000000)" fill="#010002" fill-rule="nonzero">
            <g id="twitter-logo-silhouette" transform="translate(1140.000000, 116.000000)">
                <path d="M19,1.89305176 C18.3006933,2.21429477 17.5503473,2.43215809 16.7619702,2.52942253 C17.5669568,2.02967901 18.1831539,1.23701568 18.4752018,0.295398084 C17.7201058,0.758192706 16.8866191,1.09424102 15.9985229,1.27641068 C15.2873567,0.489894774 14.2757913,0 13.153796,0 C11.0012663,0 9.25596447,1.80936959 9.25596447,4.03969271 C9.25596447,4.35601134 9.29039427,4.6649595 9.35689437,4.96038977 C6.11801,4.79173799 3.24599387,3.18301252 1.32379301,0.738495209 C0.987784294,1.33424794 0.796635289,2.02842378 0.796635289,2.76942945 C0.796635289,4.17139558 1.48526223,5.40841127 2.53007766,6.13213335 C1.89131028,6.10998976 1.29054296,5.9278201 0.764596021,5.62501936 L0.764596021,5.67548615 C0.764596021,7.63255478 2.10859985,9.26590213 3.890691,9.63764411 C3.56418229,9.72872894 3.21988435,9.77919573 2.86369586,9.77919573 C2.61200754,9.77919573 2.36860845,9.75335081 2.12995936,9.70410706 C2.62622651,11.3103864 4.0652305,12.4784609 5.77017283,12.5104854 C4.43684875,13.5936546 2.75565646,14.2373959 0.929635506,14.2373959 C0.615017345,14.2373959 0.305118146,14.2176984 0,14.1820047 C1.7251221,15.3304138 3.77318264,16 5.97439212,16 C13.1443581,16 17.0635802,9.84321259 17.0635802,4.50374256 L17.0505099,3.9806324 C17.8162856,3.41439374 18.478772,2.70296649 19,1.89305176 Z" id="Shape"></path>
            </g>
        </g>
    </g>
</svg>